<?xml version="1.0" encoding="utf-8"?>
<!-- Generator: Adobe Illustrator 19.0.0, SVG Export Plug-In . SVG Version: 6.00 Build 0)  -->
<svg version="1.1" id="Layer_1" xmlns="http://www.w3.org/2000/svg" xmlns:xlink="http://www.w3.org/1999/xlink" x="0px" y="0px"
	 viewBox="0 0 66.8 83" style="enable-background:new 0 0 66.8 83;" xml:space="preserve">
<style type="text/css">
	.st0{fill-rule:evenodd;clip-rule:evenodd;}
</style>
<path id="XMLID_42_" class="st0" d="M61.3,49.5c-3.7,7-9.4,12-15.6,16.6c-8.7,6.4-18.2,11.5-28.4,15c-2.2,0.7-4.4,1.3-6.7,1.6
	c-3.9,0.6-5.3-0.1-6.5-3.9c-1.2-3.7-2.1-7.5-2.7-11.3c-1.6-10.8-1.8-21.6,0-32.4C2.4,28.2,4.4,21.7,8.4,16c4.1-6,9.2-11,16-13.9
	c6-2.5,12.2-2.7,18.4-0.8C48.5,3,53.6,6,58,10c7.9,7.4,10.2,16.6,8.1,27c-0.5,2.4-1.3,4.8-2.1,7.1C63.2,46,62.2,47.8,61.3,49.5z
	 M28.6,43.3c6.1,3.9,14.8,1.7,18.5-4.6C51,32,48.8,23.9,42.3,20c-5.9-3.6-14.2-2.4-18.7,4.9C19.8,31.1,22.2,39.5,28.6,43.3z"/>
</svg>
